{
  "log" : {
    "version" : "1.2",
    "pages" : [ ],
    "entries" : [ {
      "startedDateTime" : "2023-07-04T18:54:41.815Z",
      "request" : {
        "method" : "PATCH",
        "url" : "https://restful-booker.herokuapp.com/booking/1419",
        "httpVersion" : "",
        "cookies" : [ ],
        "headers" : [ {
          "name" : "Content-Type",
          "value" : "application/json"
        }, {
          "name" : "Accept",
          "value" : "application/json"
        }, {
          "name" : "Cookie",
          "value" : "token=1fd6882b7c39045"
        } ],
        "queryString" : [ ],
        "postData" : {
          "mimeType" : "application/json",
          "text" : "{\n    \"firstname\" : \"Randika\",\n    \"lastname\" : \"Manihuruk\"\n}",
          "comment" : ""
        },
        "headersSize" : 0,
        "bodySize" : 0,
        "comment" : ""
      },
      "response" : {
        "status" : 200,
        "statusText" : "",
        "httpVersion" : "",
        "cookies" : [ ],
        "headers" : [ {
          "name" : "Server",
          "value" : "Cowboy"
        }, {
          "name" : "Etag",
          "value" : "W/\"b0-VaLWRzo4E082TqhJEIGmTJbzXuE\""
        }, {
          "name" : "Connection",
          "value" : "keep-alive"
        }, {
          "name" : "#status#",
          "value" : "HTTP/1.1 200 OK"
        }, {
          "name" : "Content-Length",
          "value" : "176"
        }, {
          "name" : "Date",
          "value" : "Tue, 04 Jul 2023 18:54:41 GMT"
        }, {
          "name" : "X-Powered-By",
          "value" : "Express"
        }, {
          "name" : "Content-Type",
          "value" : "application/json; charset=utf-8"
        }, {
          "name" : "Via",
          "value" : "1.1 vegur"
        } ],
        "content" : {
          "size" : 176,
          "mimeType" : "application/json; charset=utf-8",
          "text" : "{\"firstname\":\"Randika\",\"lastname\":\"Manihuruk\",\"totalprice\":111,\"depositpaid\":true,\"bookingdates\":{\"checkin\":\"2018-01-01\",\"checkout\":\"2019-01-01\"},\"additionalneeds\":\"Breakfast\"}",
          "comment" : ""
        },
        "redirectURL" : "",
        "headersSize" : 194,
        "bodySize" : 176,
        "comment" : ""
      },
      "cache" : { },
      "timings" : {
        "comment" : "",
        "send" : 0,
        "blocked" : -1,
        "connect" : 0,
        "receive" : 0,
        "wait" : 0,
        "dns" : -1,
        "ssl" : -1
      },
      "comment" : "",
      "_katalonRequestInformation" : {
        "name" : "10",
        "testObjectId" : "Object Repository/UpdatePartialBooking",
        "harId" : "4f5640df-caee-4f6d-92d9-1b1253ba4c60",
        "reportFolder" : null
      },
      "time" : 0
    } ],
    "comment" : ""
  }
}